[
  {
    "ts": "2020-04-06T14:13:11.506Z",
    "level": "error",
    "error": {
      "originalError": {
      },
      "stacktrace": [
        "Error: Error: Please make sure the destination space have the same default locale as the source Default locale for source space : sr Default locale for destination space: en-US ",
        "/usr/local/lib/node_modules/contentful-cli/node_modules/contentful-batch-libs/dist/listr.js:24:27",
        "<anonymous>"
      ]
    }
  }
]